<?xml version="1.0" encoding="UTF-8" standalone="no"?>
<!-- Creator: CorelDRAW X8 -->

<svg
   xmlns:dc="http://purl.org/dc/elements/1.1/"
   xmlns:cc="http://creativecommons.org/ns#"
   xmlns:rdf="http://www.w3.org/1999/02/22-rdf-syntax-ns#"
   xmlns:svg="http://www.w3.org/2000/svg"
   xmlns="http://www.w3.org/2000/svg"
   xmlns:sodipodi="http://sodipodi.sourceforge.net/DTD/sodipodi-0.dtd"
   xmlns:inkscape="http://www.inkscape.org/namespaces/inkscape"
   xml:space="preserve"
   width="42.332001mm"
   height="52.922501mm"
   version="1.1"
   style="clip-rule:evenodd;fill-rule:evenodd;image-rendering:optimizeQuality;shape-rendering:geometricPrecision;text-rendering:geometricPrecision"
   viewBox="0 0 4233.0001 5292"
   id="svg4241"
   inkscape:version="0.91 r13725"
   sodipodi:docname="icon_vector_w.svg"><metadata
     id="metadata4260"><rdf:RDF><cc:Work
         rdf:about=""><dc:format>image/svg+xml</dc:format><dc:type
           rdf:resource="http://purl.org/dc/dcmitype/StillImage" /><dc:title></dc:title></cc:Work></rdf:RDF></metadata><sodipodi:namedview
     pagecolor="#ffffff"
     bordercolor="#666666"
     borderopacity="1"
     objecttolerance="10"
     gridtolerance="10"
     guidetolerance="10"
     inkscape:pageopacity="0"
     inkscape:pageshadow="2"
     inkscape:window-width="1920"
     inkscape:window-height="1017"
     id="namedview4258"
     showgrid="false"
     fit-margin-top="0"
     fit-margin-left="0"
     fit-margin-right="0"
     fit-margin-bottom="0"
     inkscape:zoom="0.98333527"
     inkscape:cx="27.453143"
     inkscape:cy="67.556344"
     inkscape:window-x="-8"
     inkscape:window-y="-8"
     inkscape:window-maximized="1"
     inkscape:current-layer="svg4241" /><defs
     id="defs4243"><style
       type="text/css"
       id="style4245"><![CDATA[
    .fil0 {fill:black}
   ]]></style></defs><g
     id="图层_x0020_1"
     transform="translate(-1270,-741)"
     style="fill:#ffffff;fill-opacity:1"><metadata
       id="CorelCorpID_0Corel-Layer" /><g
       id="_1606124786224"
       style="fill:#ffffff;fill-opacity:1"><polygon
         class="fil0"
         points="4868,2858 4868,2011 5080,2011 5080,3069 4868,3069 4868,6033 5503,6033 5503,1799 5292,1799 5292,1588 5080,1588 5080,1376 4868,1376 4868,1164 4657,1164 4657,2646 4022,2646 4022,2858 "
         id="polygon4250"
         style="fill:#ffffff;fill-opacity:1" /><polygon
         class="fil0"
         points="1270,2223 1270,2434 1482,2434 1482,2646 1270,2646 1270,6033 1905,6033 1905,3069 1693,3069 1693,1164 1905,1164 1905,741 1270,741 1270,1588 1482,1588 1482,2223 "
         id="polygon4252"
         style="fill:#ffffff;fill-opacity:1" /><polygon
         class="fil0"
         points="2752,2858 2752,1164 2963,1164 2963,741 2540,741 2540,2646 1905,2646 1905,2858 "
         id="polygon4254"
         style="fill:#ffffff;fill-opacity:1" /><polygon
         class="fil0"
         points="3810,2858 3810,1164 4022,1164 4022,741 3598,741 3598,2646 2963,2646 2963,2858 "
         id="polygon4256"
         style="fill:#ffffff;fill-opacity:1" /></g></g></svg>